<?xml version="1.0" encoding="utf-8"?>
<!-- Generator: Adobe Illustrator 19.0.0, SVG Export Plug-In . SVG Version: 6.00 Build 0)  -->
<svg version="1.1" id="Layer_1" xmlns="http://www.w3.org/2000/svg" xmlns:xlink="http://www.w3.org/1999/xlink" x="0px" y="0px"
	 viewBox="-164 289.3 282 215.7" style="enable-background:new -164 289.3 282 215.7;" xml:space="preserve">
<style type="text/css">
	.st0{fill:#AFAFAF;}
</style>
<g>
	<path class="st0" d="M60.4,505c-5.9,0-10.6-4.7-10.6-10.6v-21.2c0-17.5-14.3-31.8-31.8-31.8h-84.9c-17.5,0-31.8,14.3-31.8,31.8
		v21.2c0,5.9-4.7,10.6-10.6,10.6s-10.6-4.7-10.6-10.6v-21.2c0-29.2,23.8-53,53-53H18c29.2,0,53,23.8,53,53v21.2
		C71,500.3,66.3,505,60.4,505z"/>
</g>
<g>
	<path class="st0" d="M-24.5,398.9c-29.2,0-53-23.8-53-53c0-29.2,23.8-53,53-53s53,23.8,53,53C28.5,375.1,4.8,398.9-24.5,398.9z
		 M-24.5,314.1c-17.5,0-31.8,14.3-31.8,31.8s14.3,31.8,31.8,31.8s31.8-14.3,31.8-31.8C7.3,328.4-6.9,314.1-24.5,314.1z"/>
</g>
</svg>
