{
  "prepare_queue": {
    "installed": [],
    "uninstalled": []
  },
  "config_munge": {
    "files": {
      "config.xml": {
        "parents": {
          "/*": [
            {
              "xml": "<feature name=\"FacebookConnectPlugin\"><param name=\"ios-package\" value=\"FacebookConnectPlugin\" /><param name=\"onload\" value=\"true\" /></feature>",
              "count": 1
            },
            {
              "xml": "<plugin name=\"FacebookConnectPlugin\" value=\"FacebookConnectPlugin\" />",
              "count": 1
            },
            {
              "xml": "<access origin=\"https://m.facebook.com\" />",
              "count": 1
            },
            {
              "xml": "<access origin=\"https://graph.facebook.com\" />",
              "count": 1
            },
            {
              "xml": "<access origin=\"https://api.facebook.com\" />",
              "count": 1
            },
            {
              "xml": "<access origin=\"https://*.fbcdn.net\" />",
              "count": 1
            },
            {
              "xml": "<access origin=\"https://*.akamaihd.net\" />",
              "count": 1
            },
            {
              "xml": "<feature name=\"InAppBrowser\"><param name=\"ios-package\" value=\"CDVInAppBrowser\" /></feature>",
              "count": 1
            },
            {
              "xml": "<feature name=\"NetworkStatus\"><param name=\"ios-package\" value=\"CDVConnection\" /></feature>",
              "count": 1
            },
            {
              "xml": "<feature name=\"SplashScreen\"><param name=\"ios-package\" value=\"CDVSplashScreen\" /><param name=\"onload\" value=\"true\" /></feature>",
              "count": 1
            }
          ]
        }
      },
      "*-Info.plist": {
        "parents": {
          "FacebookAppID": [
            {
              "xml": "<string>141101123273269</string>",
              "count": 1
            }
          ],
          "FacebookDisplayName": [
            {
              "xml": "<string>MyDesign</string>",
              "count": 1
            }
          ],
          "CFBundleURLTypes": [
            {
              "xml": "<array><dict><key>CFBundleURLSchemes</key><array><string>fb141101123273269</string></array></dict></array>",
              "count": 1
            }
          ],
          "NSAppTransportSecurity": [
            {
              "xml": "<dict><key>NSExceptionDomains</key><dict><key>facebook.com</key><dict><key>NSIncludesSubdomains</key><true /><key>NSThirdPartyExceptionRequiresForwardSecrecy</key><false /></dict><key>fbcdn.net</key><dict><key>NSIncludesSubdomains</key><true /><key>NSThirdPartyExceptionRequiresForwardSecrecy</key><false /></dict><key>akamaihd.net</key><dict><key>NSIncludesSubdomains</key><true /><key>NSThirdPartyExceptionRequiresForwardSecrecy</key><false /></dict></dict></dict>",
              "count": 1
            }
          ],
          "LSApplicationQueriesSchemes": [
            {
              "xml": "<array><string>fbapi</string><string>fb-messenger-api</string><string>fbauth2</string><string>fbshareextension</string></array>",
              "count": 1
            }
          ],
          "NSCameraUsageDescription": [
            {
              "xml": "<string>This app needs camera access</string>",
              "count": 1
            }
          ],
          "NSMicrophoneUsageDescription": [
            {
              "xml": "<string>This app needs microphone access</string>",
              "count": 1
            }
          ],
          "NSPhotoLibraryAddUsageDescription": [
            {
              "xml": "<string>This app needs write-access to photo library</string>",
              "count": 1
            }
          ],
          "NSPhotoLibraryUsageDescription": [
            {
              "xml": "<string>This app needs read/write-access photo library access</string>",
              "count": 1
            }
          ]
        }
      }
    }
  },
  "installed_plugins": {
    "cordova-plugin-facebook4": {
      "APP_ID": "141101123273269",
      "APP_NAME": "MyDesign",
      "PACKAGE_NAME": "com.mydesignclothes"
    },
    "cordova-plugin-inappbrowser": {
      "PACKAGE_NAME": "com.mydesignclothes"
    },
    "cordova-plugin-network-information": {
      "PACKAGE_NAME": "com.mydesignclothes"
    },
    "cordova-plugin-splashscreen": {
      "PACKAGE_NAME": "com.mydesignclothes"
    },
    "cordova-plugin-whitelist": {
      "PACKAGE_NAME": "com.mydesignclothes"
    },
    "cordova-android-support-gradle-release": {
      "PACKAGE_NAME": "com.mydesignclothes"
    },
    "cordova-plugin-ios-camera-permissions": {
      "CAMERA_USAGE_DESCRIPTION": "This app needs camera access",
      "MICROPHONE_USAGE_DESCRIPTION": "This app needs microphone access",
      "PHOTOLIBRARY_ADD_USAGE_DESCRIPTION": "This app needs write-access to photo library",
      "PHOTOLIBRARY_USAGE_DESCRIPTION": "This app needs read/write-access photo library access",
      "PACKAGE_NAME": "com.pinkmartini.mydesign"
    }
  },
  "dependent_plugins": {},
  "modules": [
    {
      "id": "cordova-plugin-facebook4.FacebookConnectPlugin",
      "file": "plugins/cordova-plugin-facebook4/www/facebook-native.js",
      "pluginId": "cordova-plugin-facebook4",
      "clobbers": [
        "facebookConnectPlugin"
      ]
    },
    {
      "id": "cordova-plugin-inappbrowser.inappbrowser",
      "file": "plugins/cordova-plugin-inappbrowser/www/inappbrowser.js",
      "pluginId": "cordova-plugin-inappbrowser",
      "clobbers": [
        "cordova.InAppBrowser.open",
        "window.open"
      ]
    },
    {
      "id": "cordova-plugin-network-information.network",
      "file": "plugins/cordova-plugin-network-information/www/network.js",
      "pluginId": "cordova-plugin-network-information",
      "clobbers": [
        "navigator.connection",
        "navigator.network.connection"
      ]
    },
    {
      "id": "cordova-plugin-network-information.Connection",
      "file": "plugins/cordova-plugin-network-information/www/Connection.js",
      "pluginId": "cordova-plugin-network-information",
      "clobbers": [
        "Connection"
      ]
    },
    {
      "id": "cordova-plugin-splashscreen.SplashScreen",
      "file": "plugins/cordova-plugin-splashscreen/www/splashscreen.js",
      "pluginId": "cordova-plugin-splashscreen",
      "clobbers": [
        "navigator.splashscreen"
      ]
    }
  ],
  "plugin_metadata": {
    "cordova-plugin-facebook4": "1.9.1",
    "cordova-plugin-inappbrowser": "2.0.2",
    "cordova-plugin-network-information": "2.0.1",
    "cordova-plugin-splashscreen": "5.0.1",
    "cordova-plugin-whitelist": "1.3.3",
    "cordova-android-support-gradle-release": "1.4.2",
    "cordova-plugin-ios-camera-permissions": "1.2.0"
  }
}