<?xml version="1.0" encoding="utf-8"?>
<!-- Generator: Adobe Illustrator 19.0.0, SVG Export Plug-In . SVG Version: 6.00 Build 0)  -->
<svg version="1.1" id="Layer_1" xmlns="http://www.w3.org/2000/svg" xmlns:xlink="http://www.w3.org/1999/xlink" x="0px" y="0px"
	 viewBox="-164 289.3 282 215.7" style="enable-background:new -164 289.3 282 215.7;" xml:space="preserve">
<style type="text/css">
	.st0{fill:#AFAFAF;}
</style>
<path class="st0" d="M51.3,370.3h-9.6v-16.7c0.1-35.5-28.7-64.3-64.2-64.3s-64.3,28.8-64.3,64.3v16.7h-9.6c-6,0-10.9,4.9-10.9,10.9
	V494c0,6,4.9,10.9,10.9,10.9H51.3c6,0,10.9-4.9,10.9-10.9V381.3C62.3,375.2,57.4,370.3,51.3,370.3z M-64.9,353.6
	c0-23.4,19-42.4,42.4-42.4s42.4,19,42.4,42.4v16.7h-84.8V353.6z M40.4,483.1H-85.4v-90.9H40.4V483.1z"/>
<path class="st0" d="M-22.5,461.7c9.2,0,16.7-7.5,16.7-16.7c0-9.2-7.5-16.7-16.7-16.7s-16.7,7.5-16.7,16.7l0,0
	C-39.1,454.2-31.7,461.6-22.5,461.7z M-22.5,439.8c2.9,0,5.2,2.3,5.2,5.2c0,2.9-2.3,5.2-5.2,5.2s-5.2-2.3-5.2-5.2
	C-27.7,442.1-25.4,439.8-22.5,439.8L-22.5,439.8z"/>
</svg>
